<?xml version="1.0" encoding="UTF-8"?>
<testsuite name="Data Rest Test" tests="1" skipped="0" failures="0" errors="0" timestamp="2025-04-27T14:32:23.769Z" hostname="DESKTOP-M5TOF04" time="0.981">
  <properties/>
  <testcase name="api 게시글 리스트 조회" classname="com.fastcampus.webpage_prac.controller.DataRestTest" time="0.981"/>
  <system-out><![CDATA[23:32:11.139 [Test worker] INFO org.springframework.test.context.support.AnnotationConfigContextLoaderUtils -- Could not detect default configuration classes for test class [com.fastcampus.webpage_prac.controller.DataRestTest]: DataRestTest does not declare any static, non-private, non-final, nested classes annotated with @Configuration.
23:32:11.274 [Test worker] INFO org.springframework.boot.test.context.SpringBootTestContextBootstrapper -- Found @SpringBootConfiguration com.fastcampus.webpage_prac.WebpagePracApplication for test class com.fastcampus.webpage_prac.controller.DataRestTest

  .   ____          _            __ _ _
 /\\ / ___'_ __ _ _(_)_ __  __ _ \ \ \ \
( ( )\___ | '_ | '_| | '_ \/ _` | \ \ \ \
 \\/  ___)| |_)| | | | | || (_| |  ) ) ) )
  '  |____| .__|_| |_|_| |_\__, | / / / /
 =========|_|==============|___/=/_/_/_/

 :: Spring Boot ::                (v3.4.4)

2025-04-27T23:32:11.781+09:00  INFO 25688 --- [    Test worker] c.f.w.controller.DataRestTest            : Starting DataRestTest using Java 21.0.6 with PID 25688 (started by Jo in C:\Users\Jo\IdeaProjects\Webpage_prac)
2025-04-27T23:32:11.782+09:00 DEBUG 25688 --- [    Test worker] c.f.w.controller.DataRestTest            : Running with Spring Boot v3.4.4, Spring v6.2.5
2025-04-27T23:32:11.783+09:00  INFO 25688 --- [    Test worker] c.f.w.controller.DataRestTest            : No active profile set, falling back to 1 default profile: "default"
2025-04-27T23:32:12.794+09:00  INFO 25688 --- [    Test worker] .s.d.r.c.RepositoryConfigurationDelegate : Bootstrapping Spring Data JPA repositories in DEFAULT mode.
2025-04-27T23:32:12.854+09:00  INFO 25688 --- [    Test worker] .s.d.r.c.RepositoryConfigurationDelegate : Finished Spring Data repository scanning in 50 ms. Found 2 JPA repository interfaces.
2025-04-27T23:32:13.637+09:00  INFO 25688 --- [    Test worker] o.hibernate.jpa.internal.util.LogHelper  : HHH000204: Processing PersistenceUnitInfo [name: default]
2025-04-27T23:32:13.717+09:00  INFO 25688 --- [    Test worker] org.hibernate.Version                    : HHH000412: Hibernate ORM core version 6.6.11.Final
2025-04-27T23:32:13.762+09:00  INFO 25688 --- [    Test worker] o.h.c.internal.RegionFactoryInitiator    : HHH000026: Second-level cache disabled
2025-04-27T23:32:14.099+09:00  INFO 25688 --- [    Test worker] o.s.o.j.p.SpringPersistenceUnitInfo      : No LoadTimeWeaver setup: ignoring JPA class transformer
2025-04-27T23:32:14.133+09:00  INFO 25688 --- [    Test worker] com.zaxxer.hikari.HikariDataSource       : HikariPool-1 - Starting...
2025-04-27T23:32:14.548+09:00  INFO 25688 --- [    Test worker] com.zaxxer.hikari.pool.HikariPool        : HikariPool-1 - Added connection com.mysql.cj.jdbc.ConnectionImpl@1978b0d5
2025-04-27T23:32:14.550+09:00  INFO 25688 --- [    Test worker] com.zaxxer.hikari.HikariDataSource       : HikariPool-1 - Start completed.
2025-04-27T23:32:14.657+09:00  INFO 25688 --- [    Test worker] org.hibernate.orm.connections.pooling    : HHH10001005: Database info:
	Database JDBC URL [Connecting through datasource 'HikariDataSource (HikariPool-1)']
	Database driver: undefined/unknown
	Database version: 8.0.41
	Autocommit mode: undefined/unknown
	Isolation level: undefined/unknown
	Minimum pool size: undefined/unknown
	Maximum pool size: undefined/unknown
2025-04-27T23:32:15.645+09:00  INFO 25688 --- [    Test worker] o.h.e.t.j.p.i.JtaPlatformInitiator       : HHH000489: No JTA platform available (set 'hibernate.transaction.jta.platform' to enable JTA platform integration)
Hibernate: 
    alter table article_comment 
       drop 
       foreign key FKghmocqkgqs5tkmucf5putw64t
Hibernate: 
    drop table if exists article
Hibernate: 
    drop table if exists article_comment
Hibernate: 
    create table article (
        create_at datetime(6) not null,
        id bigint not null auto_increment,
        modified_at datetime(6) not null,
        create_by varchar(100) not null,
        modified_by varchar(100) not null,
        content varchar(10000) not null,
        hashtag varchar(255),
        title varchar(255) not null,
        primary key (id)
    ) engine=InnoDB
Hibernate: 
    create table article_comment (
        article_id bigint not null,
        create_at datetime(6) not null,
        id bigint not null auto_increment,
        modified_at datetime(6) not null,
        create_by varchar(100) not null,
        modified_by varchar(100) not null,
        content varchar(500) not null,
        primary key (id)
    ) engine=InnoDB
Hibernate: 
    create index IDX571gx7oqo5xpmgocegaidlcu9 
       on article (title)
Hibernate: 
    create index IDXai44fu6vaa28ebpydglnv7t3e 
       on article (hashtag)
Hibernate: 
    create index IDXja6h21m34tv9kn8d84yusnh1n 
       on article (create_at)
Hibernate: 
    create index IDX4k8tf7d3985rrplr0ovg8ub8g 
       on article (create_by)
Hibernate: 
    create index IDXpieqqnljv147sefofs56h25qx 
       on article_comment (content)
Hibernate: 
    create index IDX9a5sacyxiq2cnjjlu154cqlel 
       on article_comment (create_at)
Hibernate: 
    create index IDXg8ovhcvur81o5p1vf13o8ngd3 
       on article_comment (create_by)
Hibernate: 
    alter table article_comment 
       add constraint FKghmocqkgqs5tkmucf5putw64t 
       foreign key (article_id) 
       references article (id)
2025-04-27T23:32:16.795+09:00  INFO 25688 --- [    Test worker] j.LocalContainerEntityManagerFactoryBean : Initialized JPA EntityManagerFactory for persistence unit 'default'
2025-04-27T23:32:17.669+09:00 DEBUG 25688 --- [    Test worker] s.w.s.m.m.a.RequestMappingHandlerMapping : 2 mappings in 'requestMappingHandlerMapping'
2025-04-27T23:32:17.871+09:00 DEBUG 25688 --- [    Test worker] o.s.w.s.handler.SimpleUrlHandlerMapping  : Patterns [/webjars/**, /**, /api/explorer/**] in 'resourceHandlerMapping'
2025-04-27T23:32:17.936+09:00 DEBUG 25688 --- [    Test worker] s.w.s.m.m.a.RequestMappingHandlerAdapter : ControllerAdvice beans: 0 @ModelAttribute, 0 @InitBinder, 1 RequestBodyAdvice, 1 ResponseBodyAdvice
2025-04-27T23:32:18.003+09:00 DEBUG 25688 --- [    Test worker] .m.m.a.ExceptionHandlerExceptionResolver : ControllerAdvice beans: 1 @ExceptionHandler, 1 ResponseBodyAdvice
2025-04-27T23:32:18.058+09:00 DEBUG 25688 --- [    Test worker] .m.m.a.ExceptionHandlerExceptionResolver : ControllerAdvice beans: 1 @ExceptionHandler, 0 ResponseBodyAdvice
2025-04-27T23:32:23.619+09:00  INFO 25688 --- [    Test worker] o.s.b.t.m.w.SpringBootMockServletContext : Initializing Spring TestDispatcherServlet ''
2025-04-27T23:32:23.620+09:00  INFO 25688 --- [    Test worker] o.s.t.web.servlet.TestDispatcherServlet  : Initializing Servlet ''
2025-04-27T23:32:23.631+09:00  INFO 25688 --- [    Test worker] o.s.b.a.e.web.EndpointLinksResolver      : Exposing 1 endpoint beneath base path '/actuator'
2025-04-27T23:32:23.645+09:00  INFO 25688 --- [    Test worker] o.s.t.web.servlet.TestDispatcherServlet  : Completed initialization in 25 ms
2025-04-27T23:32:23.704+09:00  INFO 25688 --- [    Test worker] c.f.w.controller.DataRestTest            : Started DataRestTest in 12.268 seconds (process running for 13.503)
Hibernate: 
    select
        a1_0.id,
        a1_0.content,
        a1_0.create_at,
        a1_0.create_by,
        a1_0.hashtag,
        a1_0.modified_at,
        a1_0.modified_by,
        a1_0.title 
    from
        article a1_0 
    limit
        ?, ?
Hibernate: 
    select
        count(a1_0.id) 
    from
        article a1_0
2025-04-27T23:32:24.553+09:00 DEBUG 25688 --- [    Test worker] m.m.a.RequestResponseBodyMethodProcessor : Using 'application/hal+json', given [*/*] and supported [application/hal+json]
2025-04-27T23:32:24.605+09:00 DEBUG 25688 --- [    Test worker] m.m.a.RequestResponseBodyMethodProcessor : Writing [PagedModel { content: [EntityModel { content: Article(id=1, title=Duis at velit eu est congue elemen (truncated)...]

MockHttpServletRequest:
      HTTP Method = GET
      Request URI = /api/articles
       Parameters = {}
          Headers = []
             Body = null
    Session Attrs = {}

Handler:
             Type = org.springframework.data.rest.webmvc.RepositoryEntityController
           Method = org.springframework.data.rest.webmvc.RepositoryEntityController#getCollectionResource(RootResourceInformation, DefaultedPageable, Sort, RepresentationModelAssemblers)

Async:
    Async started = false
     Async result = null

Resolved Exception:
             Type = null

ModelAndView:
        View name = null
             View = null
            Model = null

FlashMap:
       Attributes = null

MockHttpServletResponse:
           Status = 200
    Error message = null
          Headers = [Vary:"Origin", "Access-Control-Request-Method", "Access-Control-Request-Headers", Content-Type:"application/hal+json"]
     Content type = application/hal+json
             Body = {
  "_embedded" : {
    "articles" : [ {
      "createAt" : "2024-08-12T12:34:09",
      "modifiedAt" : "2025-04-08T23:06:43",
      "createBy" : "Margalo",
      "modifiedBy" : "Lucinda",
      "title" : "Duis at velit eu est congue elementum.",
      "content" : "Pellentesque at nulla. Suspendisse potenti. Cras in purus eu magna vulputate luctus.",
      "hashtag" : "Pink",
      "_links" : {
        "self" : {
          "href" : "http://localhost/api/articles/1"
        },
        "article" : {
          "href" : "http://localhost/api/articles/1"
        },
        "articleComments" : {
          "href" : "http://localhost/api/articles/1/articleComments"
        }
      }
    }, {
      "createAt" : "2024-11-20T17:17:09",
      "modifiedAt" : "2024-10-06T17:33:26",
      "createBy" : "Karine",
      "modifiedBy" : "Axe",
      "title" : "Maecenas rhoncus aliquam lacus.",
      "content" : "Aenean lectus. Pellentesque eget nunc. Donec quis orci eget orci vehicula condimentum.",
      "hashtag" : "Fuscia",
      "_links" : {
        "self" : {
          "href" : "http://localhost/api/articles/2"
        },
        "article" : {
          "href" : "http://localhost/api/articles/2"
        },
        "articleComments" : {
          "href" : "http://localhost/api/articles/2/articleComments"
        }
      }
    }, {
      "createAt" : "2024-08-25T11:10:52",
      "modifiedAt" : "2024-09-08T17:02:13",
      "createBy" : "Yanaton",
      "modifiedBy" : "Frasco",
      "title" : "Duis bibendum.",
      "content" : "Cras non velit nec nisi vulputate nonummy. Maecenas tincidunt lacus at velit. Vivamus vel nulla eget eros elementum pellentesque.",
      "hashtag" : null,
      "_links" : {
        "self" : {
          "href" : "http://localhost/api/articles/3"
        },
        "article" : {
          "href" : "http://localhost/api/articles/3"
        },
        "articleComments" : {
          "href" : "http://localhost/api/articles/3/articleComments"
        }
      }
    }, {
      "createAt" : "2024-05-12T20:12:12",
      "modifiedAt" : "2024-11-24T18:00:50",
      "createBy" : "Patti",
      "modifiedBy" : "Loreen",
      "title" : "Duis ac nibh.",
      "content" : "Donec diam neque, vestibulum eget, vulputate ut, ultrices vel, augue. Vestibulum ante ipsum primis in faucibus orci luctus et ultrices posuere cubilia Curae; Donec pharetra, magna vestibulum aliquet ultrices, erat tortor sollicitudin mi, sit amet lobortis sapien sapien non mi. Integer ac neque.",
      "hashtag" : null,
      "_links" : {
        "self" : {
          "href" : "http://localhost/api/articles/4"
        },
        "article" : {
          "href" : "http://localhost/api/articles/4"
        },
        "articleComments" : {
          "href" : "http://localhost/api/articles/4/articleComments"
        }
      }
    }, {
      "createAt" : "2024-08-06T07:21:08",
      "modifiedAt" : "2024-11-23T01:17:22",
      "createBy" : "Carmelina",
      "modifiedBy" : "Ephraim",
      "title" : "Morbi non quam nec dui luctus rutrum.",
      "content" : "Morbi non lectus. Aliquam sit amet diam in magna bibendum imperdiet. Nullam orci pede, venenatis non, sodales sed, tincidunt eu, felis.",
      "hashtag" : "Goldenrod",
      "_links" : {
        "self" : {
          "href" : "http://localhost/api/articles/5"
        },
        "article" : {
          "href" : "http://localhost/api/articles/5"
        },
        "articleComments" : {
          "href" : "http://localhost/api/articles/5/articleComments"
        }
      }
    }, {
      "createAt" : "2024-08-29T07:51:04",
      "modifiedAt" : "2024-05-18T12:20:10",
      "createBy" : "Brooks",
      "modifiedBy" : "Francesca",
      "title" : "Maecenas leo odio, condimentum id, luctus nec, molestie sed, justo.",
      "content" : "Proin eu mi. Nulla ac enim. In tempor, turpis nec euismod scelerisque, quam turpis adipiscing lorem, vitae mattis nibh ligula nec sem.",
      "hashtag" : "Yellow",
      "_links" : {
        "self" : {
          "href" : "http://localhost/api/articles/6"
        },
        "article" : {
          "href" : "http://localhost/api/articles/6"
        },
        "articleComments" : {
          "href" : "http://localhost/api/articles/6/articleComments"
        }
      }
    }, {
      "createAt" : "2025-01-17T05:10:27",
      "modifiedAt" : "2024-09-26T01:04:33",
      "createBy" : "Marni",
      "modifiedBy" : "Blinnie",
      "title" : "Duis bibendum.",
      "content" : "Duis bibendum. Morbi non quam nec dui luctus rutrum. Nulla tellus.",
      "hashtag" : null,
      "_links" : {
        "self" : {
          "href" : "http://localhost/api/articles/7"
        },
        "article" : {
          "href" : "http://localhost/api/articles/7"
        },
        "articleComments" : {
          "href" : "http://localhost/api/articles/7/articleComments"
        }
      }
    }, {
      "createAt" : "2025-01-04T04:17:05",
      "modifiedAt" : "2024-07-03T09:01:00",
      "createBy" : "Slade",
      "modifiedBy" : "Montgomery",
      "title" : "Morbi vel lectus in quam fringilla rhoncus.",
      "content" : "Cras non velit nec nisi vulputate nonummy. Maecenas tincidunt lacus at velit. Vivamus vel nulla eget eros elementum pellentesque.",
      "hashtag" : "Orange",
      "_links" : {
        "self" : {
          "href" : "http://localhost/api/articles/8"
        },
        "article" : {
          "href" : "http://localhost/api/articles/8"
        },
        "articleComments" : {
          "href" : "http://localhost/api/articles/8/articleComments"
        }
      }
    }, {
      "createAt" : "2025-02-08T10:03:40",
      "modifiedAt" : "2024-10-07T22:16:39",
      "createBy" : "Moll",
      "modifiedBy" : "Gaylene",
      "title" : "Curabitur at ipsum ac tellus semper interdum.",
      "content" : "Nullam sit amet turpis elementum ligula vehicula consequat. Morbi a ipsum. Integer a nibh.",
      "hashtag" : null,
      "_links" : {
        "self" : {
          "href" : "http://localhost/api/articles/9"
        },
        "article" : {
          "href" : "http://localhost/api/articles/9"
        },
        "articleComments" : {
          "href" : "http://localhost/api/articles/9/articleComments"
        }
      }
    }, {
      "createAt" : "2024-05-09T01:06:08",
      "modifiedAt" : "2025-03-09T21:17:11",
      "createBy" : "Basil",
      "modifiedBy" : "Maurice",
      "title" : "Fusce posuere felis sed lacus.",
      "content" : "Proin eu mi. Nulla ac enim. In tempor, turpis nec euismod scelerisque, quam turpis adipiscing lorem, vitae mattis nibh ligula nec sem.",
      "hashtag" : "Red",
      "_links" : {
        "self" : {
          "href" : "http://localhost/api/articles/10"
        },
        "article" : {
          "href" : "http://localhost/api/articles/10"
        },
        "articleComments" : {
          "href" : "http://localhost/api/articles/10/articleComments"
        }
      }
    }, {
      "createAt" : "2024-07-15T01:57:02",
      "modifiedAt" : "2025-04-16T01:28:13",
      "createBy" : "Toni",
      "modifiedBy" : "Jonie",
      "title" : "Proin risus.",
      "content" : "Pellentesque at nulla. Suspendisse potenti. Cras in purus eu magna vulputate luctus.",
      "hashtag" : "Khaki",
      "_links" : {
        "self" : {
          "href" : "http://localhost/api/articles/11"
        },
        "article" : {
          "href" : "http://localhost/api/articles/11"
        },
        "articleComments" : {
          "href" : "http://localhost/api/articles/11/articleComments"
        }
      }
    }, {
      "createAt" : "2025-03-23T11:37:53",
      "modifiedAt" : "2024-05-15T16:07:35",
      "createBy" : "Jolie",
      "modifiedBy" : "Elizabet",
      "title" : "Etiam vel augue.",
      "content" : "Cum sociis natoque penatibus et magnis dis parturient montes, nascetur ridiculus mus. Vivamus vestibulum sagittis sapien. Cum sociis natoque penatibus et magnis dis parturient montes, nascetur ridiculus mus.",
      "hashtag" : null,
      "_links" : {
        "self" : {
          "href" : "http://localhost/api/articles/12"
        },
        "article" : {
          "href" : "http://localhost/api/articles/12"
        },
        "articleComments" : {
          "href" : "http://localhost/api/articles/12/articleComments"
        }
      }
    }, {
      "createAt" : "2025-04-14T11:00:24",
      "modifiedAt" : "2024-11-25T06:55:42",
      "createBy" : "Kiah",
      "modifiedBy" : "Mead",
      "title" : "Nam ultrices, libero non mattis pulvinar, nulla pede ullamcorper augue, a suscipit nulla elit ac nulla.",
      "content" : "Fusce posuere felis sed lacus. Morbi sem mauris, laoreet ut, rhoncus aliquet, pulvinar sed, nisl. Nunc rhoncus dui vel sem.",
      "hashtag" : "Crimson",
      "_links" : {
        "self" : {
          "href" : "http://localhost/api/articles/13"
        },
        "article" : {
          "href" : "http://localhost/api/articles/13"
        },
        "articleComments" : {
          "href" : "http://localhost/api/articles/13/articleComments"
        }
      }
    }, {
      "createAt" : "2025-02-12T13:18:28",
      "modifiedAt" : "2024-09-20T13:02:04",
      "createBy" : "Thomasina",
      "modifiedBy" : "Veradis",
      "title" : "Nam congue, risus semper porta volutpat, quam pede lobortis ligula, sit amet eleifend pede libero quis orci.",
      "content" : "Morbi porttitor lorem id ligula. Suspendisse ornare consequat lectus. In est risus, auctor sed, tristique in, tempus sit amet, sem.",
      "hashtag" : "Teal",
      "_links" : {
        "self" : {
          "href" : "http://localhost/api/articles/14"
        },
        "article" : {
          "href" : "http://localhost/api/articles/14"
        },
        "articleComments" : {
          "href" : "http://localhost/api/articles/14/articleComments"
        }
      }
    }, {
      "createAt" : "2025-02-25T11:56:31",
      "modifiedAt" : "2024-12-24T16:02:31",
      "createBy" : "Mireille",
      "modifiedBy" : "Briny",
      "title" : "Morbi a ipsum.",
      "content" : "Nam ultrices, libero non mattis pulvinar, nulla pede ullamcorper augue, a suscipit nulla elit ac nulla. Sed vel enim sit amet nunc viverra dapibus. Nulla suscipit ligula in lacus.",
      "hashtag" : null,
      "_links" : {
        "self" : {
          "href" : "http://localhost/api/articles/15"
        },
        "article" : {
          "href" : "http://localhost/api/articles/15"
        },
        "articleComments" : {
          "href" : "http://localhost/api/articles/15/articleComments"
        }
      }
    }, {
      "createAt" : "2024-05-22T00:57:14",
      "modifiedAt" : "2024-05-11T15:04:06",
      "createBy" : "Hesther",
      "modifiedBy" : "Corenda",
      "title" : "Aliquam quis turpis eget elit sodales scelerisque.",
      "content" : "Quisque id justo sit amet sapien dignissim vestibulum. Vestibulum ante ipsum primis in faucibus orci luctus et ultrices posuere cubilia Curae; Nulla dapibus dolor vel est. Donec odio justo, sollicitudin ut, suscipit a, feugiat et, eros.",
      "hashtag" : null,
      "_links" : {
        "self" : {
          "href" : "http://localhost/api/articles/16"
        },
        "article" : {
          "href" : "http://localhost/api/articles/16"
        },
        "articleComments" : {
          "href" : "http://localhost/api/articles/16/articleComments"
        }
      }
    }, {
      "createAt" : "2024-08-13T00:00:48",
      "modifiedAt" : "2025-01-09T11:52:24",
      "createBy" : "Reginald",
      "modifiedBy" : "Charley",
      "title" : "Morbi non lectus.",
      "content" : "Cras mi pede, malesuada in, imperdiet et, commodo vulputate, justo. In blandit ultrices enim. Lorem ipsum dolor sit amet, consectetuer adipiscing elit.",
      "hashtag" : "Maroon",
      "_links" : {
        "self" : {
          "href" : "http://localhost/api/articles/17"
        },
        "article" : {
          "href" : "http://localhost/api/articles/17"
        },
        "articleComments" : {
          "href" : "http://localhost/api/articles/17/articleComments"
        }
      }
    }, {
      "createAt" : "2024-08-11T00:10:05",
      "modifiedAt" : "2024-12-29T10:24:53",
      "createBy" : "Yul",
      "modifiedBy" : "Willetta",
      "title" : "Nulla ut erat id mauris vulputate elementum.",
      "content" : "Curabitur gravida nisi at nibh. In hac habitasse platea dictumst. Aliquam augue quam, sollicitudin vitae, consectetuer eget, rutrum at, lorem.",
      "hashtag" : "Khaki",
      "_links" : {
        "self" : {
          "href" : "http://localhost/api/articles/18"
        },
        "article" : {
          "href" : "http://localhost/api/articles/18"
        },
        "articleComments" : {
          "href" : "http://localhost/api/articles/18/articleComments"
        }
      }
    }, {
      "createAt" : "2025-04-15T06:48:44",
      "modifiedAt" : "2025-02-02T09:40:48",
      "createBy" : "Estelle",
      "modifiedBy" : "Valry",
      "title" : "Vestibulum ante ipsum primis in faucibus orci luctus et ultrices posuere cubilia Curae; Duis faucibus accumsan odio.",
      "content" : "Quisque porta volutpat erat. Quisque erat eros, viverra eget, congue eget, semper rutrum, nulla. Nunc purus.",
      "hashtag" : "Violet",
      "_links" : {
        "self" : {
          "href" : "http://localhost/api/articles/19"
        },
        "article" : {
          "href" : "http://localhost/api/articles/19"
        },
        "articleComments" : {
          "href" : "http://localhost/api/articles/19/articleComments"
        }
      }
    }, {
      "createAt" : "2025-01-01T11:27:00",
      "modifiedAt" : "2024-06-08T01:21:35",
      "createBy" : "Lura",
      "modifiedBy" : "Ania",
      "title" : "Maecenas ut massa quis augue luctus tincidunt.",
      "content" : "Curabitur in libero ut massa volutpat convallis. Morbi odio odio, elementum eu, interdum eu, tincidunt in, leo. Maecenas pulvinar lobortis est.",
      "hashtag" : "Green",
      "_links" : {
        "self" : {
          "href" : "http://localhost/api/articles/20"
        },
        "article" : {
          "href" : "http://localhost/api/articles/20"
        },
        "articleComments" : {
          "href" : "http://localhost/api/articles/20/articleComments"
        }
      }
    } ]
  },
  "_links" : {
    "first" : {
      "href" : "http://localhost/api/articles?page=0&size=20"
    },
    "self" : {
      "href" : "http://localhost/api/articles?page=0&size=20"
    },
    "next" : {
      "href" : "http://localhost/api/articles?page=1&size=20"
    },
    "last" : {
      "href" : "http://localhost/api/articles?page=4&size=20"
    },
    "profile" : {
      "href" : "http://localhost/api/profile/articles"
    }
  },
  "page" : {
    "size" : 20,
    "totalElements" : 100,
    "totalPages" : 5,
    "number" : 0
  }
}
    Forwarded URL = null
   Redirected URL = null
          Cookies = []
]]></system-out>
  <system-err><![CDATA[Mockito is currently self-attaching to enable the inline-mock-maker. This will no longer work in future releases of the JDK. Please add Mockito as an agent to your build what is described in Mockito's documentation: https://javadoc.io/doc/org.mockito/mockito-core/latest/org/mockito/Mockito.html#0.3
WARNING: A Java agent has been loaded dynamically (C:\Users\Jo\.gradle\caches\modules-2\files-2.1\net.bytebuddy\byte-buddy-agent\1.15.11\a38b16385e867f59a641330f0362ebe742788ed8\byte-buddy-agent-1.15.11.jar)
WARNING: If a serviceability tool is in use, please run with -XX:+EnableDynamicAgentLoading to hide this warning
WARNING: If a serviceability tool is not in use, please run with -Djdk.instrument.traceUsage for more information
WARNING: Dynamic loading of agents will be disallowed by default in a future release
]]></system-err>
</testsuite>
